%YAML 1.1
%TAG !u! tag:unity3d.com,2011:
--- !u!114 &11400000
MonoBehaviour:
  m_ObjectHideFlags: 0
  m_CorrespondingSourceObject: {fileID: 0}
  m_PrefabInstance: {fileID: 0}
  m_PrefabAsset: {fileID: 0}
  m_GameObject: {fileID: 0}
  m_Enabled: 1
  m_EditorHideFlags: 0
  m_Script: {fileID: 11500000, guid: c9804572da3e4bb43a361b29c567cc82, type: 3}
  m_Name: GameController
  m_EditorClassIdentifier: 
  trainVelocity: 0
  trainHealth: 0
  playerRockCount: 0
  horsemanSpawnCount: 0
  horsemanSpawnTimeMax: 0
  horsemanSpawnTimeMin: 0
  rockSpeed: 0
